{
    "F_iii":  {
	"comment": "if x goto k",
	"types": [ "bool", "bool", "bool", "bool"],
	"columns": [ "S[i,t]", "x", "S[k,t+1]", "S[i+1,t+1]" ],
	"inequalities": [
	    [  1, -1, -1,  1,  0],
	    [  0, -1,  1,  0,  1]
	]
    },

    "set_not": {
	"tag": "SN",
	"comment": "set a not b",
	"types": [ "bool", "bool", "bool"],
	"columns": ["S[it]", "b", "a"],
	"inequalities": [ 
	    [  2, -1, -1, -1],
	    [  0, -1,  1,  1]
	]
    },

    "set_xor": {
	"tag": "SX",
	"comment": "set dest a xor b",
	"types": [ "bool", "bool", "bool","bool"],
	"columns": ["S[it]", "a", "b", "dest"],
	"inequalities": [ 
	    [  3, -1, -1, -1, -1],
	    [  1, -1,  1, -1,  1],
	    [  1, -1, -1,  1,  1],
	    [  1, -1,  1,  1, -1]
	]
    },

    "set_and": {
	"tag": "SA",
	"comment": "set dest a and b",
	"types": [ "bool", "bool", "bool","bool"],
	"columns": ["S[it]", "a", "b", "dest"],
	"inequalities": [
	    [  2, -1, -1, -1,  1],
	    [  1, -1,  1,  0, -1],
	    [  1, -1,  0,  1, -1]
	]
    },

    "set_or": {
	"tag": "SO",
	"comment": "set dest a or b",
	"types": [ "bool", "bool", "bool","bool"],
	"columns": ["S[it]", "a", "b", "dest"],
	"inequalities": [
	    [ 1, -1,  0, -1,  1 ],
	    [ 1, -1, -1,  0,  1 ],
	    [ 1, -1,  1,  1, -1 ]
	]
    },


    "set_copy": {
	"tag": "SC",
	"comment": "G_i : if S[i,t] then x = y",
	"types": [ "bool", "bool", "bool"],
	"columns": ["S[i,t]", "y", "x" ],
	"inequalities": [
	    [  1, -1, -1,  1],
	    [  1, -1,  1, -1]
	]
    },

    "set_eq": {
	"tag": "SE",
	"comment": "If S[i,t] the z <- x == y",
	"types": [ "bool", "bool", "bool", "bool"],
	"columns": ["S[i,t]", "x", "y", "z" ],
	"inequalities": [
	    [  2, -1, -1, -1,  1],
	    [  2, -1, -1,  1, -1],
	    [  2, -1,  1, -1, -1],
	    [  0, -1,  1,  1,  1]
	]
    },


    "set_array_ref": {
	"comment": "if S[i,t] then z = A[j]",
	"special": true,
	"types": ["bool",  "array", "int", "bool"],
	"inequalities": []
    },

    "set_matrix_ref": {
	"comment": "if S[i,t] then z = A[j,k]",
	"special": true,
	"types": ["bool",  "array", "int", "int", "bool"],
	"inequalities": []
    }
}
